<?xml version="1.0" standalone="no"?>
<!DOCTYPE svg PUBLIC "-//W3C//DTD SVG 20010904//EN"
 "http://www.w3.org/TR/2001/REC-SVG-20010904/DTD/svg10.dtd">
<svg version="1.0" xmlns="http://www.w3.org/2000/svg"
 width="1024.000000pt" height="1024.000000pt" viewBox="0 0 1024.000000 1024.000000"
 preserveAspectRatio="xMidYMid meet">
<metadata>
Created by potrace 1.11, written by Peter Selinger 2001-2013
</metadata>
<g transform="translate(0.000000,1024.000000) scale(0.100000,-0.100000)"
fill="#000000" stroke="none">
<path d="M8968 6793 c-8 -10 -161 -268 -338 -573 -554 -950 -580 -995 -594
-1008 -10 -11 -17 0 -38 60 -14 40 -42 116 -61 168 -19 52 -65 178 -101 280
-37 102 -74 203 -83 225 -8 22 -21 60 -29 85 -8 25 -19 54 -24 65 -5 11 -24
62 -42 113 -19 55 -40 98 -51 104 -24 12 -6462 11 -6542 -2 -280 -46 -504
-226 -603 -485 -124 -327 1 -708 294 -898 75 -48 166 -89 230 -102 21 -5 46
-10 54 -13 8 -2 336 -6 728 -7 534 -2 712 0 713 8 5 50 3 280 -2 288 -4 8
-217 11 -665 10 -633 0 -733 4 -794 31 -72 32 -97 47 -140 85 -188 168 -205
451 -37 635 51 56 102 90 182 120 l60 23 3152 3 c3116 2 3152 2 3163 -17 5
-11 91 -244 191 -518 225 -620 239 -657 251 -664 18 -11 307 -7 323 5 12 9
157 254 440 741 229 395 511 877 531 908 l24 37 265 0 c281 0 283 0 251 -46
-12 -16 -100 -165 -166 -279 -9 -16 -119 -205 -245 -420 -125 -214 -237 -406
-248 -425 -10 -19 -50 -87 -87 -150 -37 -63 -77 -131 -88 -150 -135 -239 -308
-529 -324 -542 -19 -17 -58 -18 -522 -18 -275 0 -506 4 -511 8 -15 10 -27 40
-199 492 -84 223 -182 478 -216 568 l-63 162 -93 -162 c-52 -90 -98 -170 -103
-178 -12 -18 -266 -455 -302 -519 -15 -25 -108 -187 -209 -359 -100 -172 -180
-315 -178 -317 2 -2 82 -5 178 -5 134 -1 175 1 182 12 10 16 103 174 313 533
87 149 158 271 160 272 1 3 43 -109 101 -272 14 -38 29 -78 35 -87 5 -10 9
-22 9 -27 0 -5 5 -22 12 -38 6 -15 12 -32 14 -38 8 -29 116 -319 124 -336 10
-18 31 -19 723 -19 392 0 717 4 723 8 9 5 453 758 562 952 14 25 35 61 47 80
12 19 33 55 47 80 14 25 56 97 93 160 37 63 79 135 93 160 13 25 28 50 32 55
4 6 102 172 217 370 116 198 265 454 331 568 67 114 122 210 122 213 0 2 -283
4 -628 4 -587 0 -630 -1 -644 -17z"/>
<path d="M4635 5689 c-170 -13 -292 -87 -372 -229 -50 -88 -68 -225 -43 -321
44 -163 186 -298 346 -327 53 -9 1311 -14 1352 -5 16 4 44 42 97 132 42 69 81
134 88 143 6 9 8 20 4 24 -4 4 -334 7 -733 6 -771 -2 -764 -2 -816 45 -42 38
-47 128 -9 172 43 50 29 49 897 48 446 0 816 3 822 7 8 5 77 117 91 149 1 4
23 40 46 80 24 39 42 73 40 75 -7 7 -1717 7 -1810 1z"/>
<path d="M1190 5678 c-18 -7 -20 -17 -19 -143 0 -75 3 -143 6 -150 4 -12 113
-14 671 -14 367 0 681 -3 697 -6 138 -25 255 -116 321 -251 38 -76 39 -81 39
-183 0 -125 -17 -181 -80 -265 -69 -93 -145 -143 -258 -173 -55 -14 -184 -16
-1204 -16 -1272 0 -1184 5 -1226 -70 -12 -21 -47 -82 -78 -135 -32 -54 -56
-98 -54 -100 8 -9 2555 -2 2600 7 349 68 614 379 617 725 1 160 -36 300 -109
418 -13 21 -23 41 -23 45 0 5 70 6 156 3 l157 -5 2 -140 c2 -144 18 -235 66
-365 99 -268 317 -499 577 -610 128 -55 211 -74 372 -86 134 -10 1121 -7 1132
4 5 5 47 74 93 153 l84 144 -92 2 c-51 2 -357 4 -682 6 -536 3 -596 5 -655 21
-416 118 -654 502 -565 914 13 62 46 142 112 272 5 8 -2635 6 -2657 -2z"/>
<path d="M132 3929 c-65 -6 -107 -32 -110 -67 -7 -89 2 -123 40 -143 11 -6 81
-13 155 -15 73 -2 138 -6 143 -9 13 -8 13 -42 -1 -51 -15 -9 -156 -12 -194 -4
-17 3 -30 12 -30 20 0 11 -14 15 -57 16 -56 1 -58 1 -58 -25 1 -82 44 -99 240
-94 178 4 164 2 195 27 22 18 27 32 30 75 5 65 -13 105 -53 119 -15 5 -83 10
-151 11 -136 2 -151 5 -151 31 0 28 11 31 115 33 83 1 97 -1 113 -19 13 -14
31 -19 63 -18 42 1 44 2 47 32 4 38 -36 81 -77 83 -87 5 -205 4 -259 -2z"/>
<path d="M548 3932 c-23 -4 -18 -273 6 -319 24 -47 78 -60 241 -58 118 1 135
4 168 24 47 29 55 61 55 224 l0 127 -49 0 c-27 0 -52 1 -56 3 -5 1 -9 -56 -10
-127 -2 -163 0 -160 -128 -160 -61 1 -100 5 -108 13 -8 8 -14 60 -17 143 l-5
131 -41 1 c-22 0 -48 0 -56 -2z"/>
<path d="M1123 3932 l-41 -3 0 -172 c0 -95 2 -179 4 -187 4 -15 64 -17 371
-11 71 1 105 30 108 92 2 49 -15 84 -48 94 -17 5 -18 8 -7 12 26 9 40 36 40
78 0 54 -22 84 -68 91 -41 6 -293 11 -359 6z m308 -104 c19 -35 -6 -44 -117
-42 -55 1 -104 2 -110 3 -8 1 -12 41 -5 59 1 1 50 2 111 2 102 0 110 -1 121
-22z m17 -147 c2 -13 -1 -27 -8 -31 -6 -4 -64 -6 -128 -6 l-117 1 -1 25 c0 14
1 29 4 33 2 4 58 6 125 5 120 -3 122 -3 125 -27z"/>
<path d="M1825 3932 c-21 -3 -29 -13 -73 -91 -14 -25 -54 -97 -89 -160 -35
-63 -62 -116 -59 -118 3 -4 84 -6 112 -4 6 1 17 16 26 34 l16 32 121 0 122 0
16 -33 c8 -17 18 -32 22 -33 8 -1 104 -1 114 0 6 1 -31 77 -83 166 -10 17 -37
66 -60 110 -23 44 -46 84 -50 88 -7 8 -99 14 -135 9z m97 -161 l37 -68 -57 -1
c-107 -1 -106 -2 -64 73 19 36 38 65 41 65 3 0 23 -31 43 -69z"/>
<path d="M2263 3932 l-63 -3 0 -184 c0 -102 3 -185 8 -186 11 -1 75 -2 93 0
11 1 15 11 14 39 -1 20 0 42 2 48 3 7 41 10 110 9 117 -2 133 -10 128 -65 -1
-17 0 -30 4 -31 3 0 30 -1 59 -2 l52 -2 0 47 c0 61 -7 77 -39 90 l-26 10 27
14 c31 16 41 42 40 103 0 54 -17 86 -51 100 -26 11 -239 19 -358 13z m282
-100 c19 -13 18 -70 -2 -80 -14 -6 -194 -9 -223 -3 -3 1 -6 21 -6 46 l0 45
111 0 c60 0 115 -4 120 -8z"/>
<path d="M2746 3932 c-16 -4 -17 -17 -14 -157 3 -145 4 -155 27 -179 32 -34
92 -44 236 -41 153 3 190 18 210 85 9 29 9 279 1 288 -7 7 -95 6 -102 -1 -3
-3 -7 -62 -7 -130 -1 -69 -5 -128 -8 -132 -26 -26 -202 -27 -227 -1 -12 12
-16 43 -16 140 l-1 124 -41 4 c-22 2 -49 1 -58 0z"/>
<path d="M3505 3930 c-90 -14 -119 -58 -116 -180 3 -176 21 -192 218 -195 215
-3 246 9 257 98 l7 47 -61 0 c-52 0 -60 -2 -60 -19 0 -26 -20 -32 -117 -32
-119 0 -131 9 -128 101 2 92 1 92 140 92 91 0 97 -1 102 -22 5 -17 14 -20 60
-20 l56 0 -6 41 c-6 49 -28 76 -71 85 -41 9 -230 12 -281 4z"/>
<path d="M3915 3930 c-2 -3 -3 -87 -3 -187 -1 -165 1 -183 16 -184 22 -1 345
-1 352 0 3 1 5 21 6 46 l1 45 -129 0 -128 0 -1 108 c-1 59 -1 121 -1 139 0 31
0 31 -55 35 -30 1 -56 1 -58 -2z"/>
<path d="M4363 3932 l-41 -3 2 -142 c2 -78 8 -154 14 -169 21 -51 61 -62 227
-62 227 -1 239 11 240 235 l1 137 -31 4 c-16 1 -42 2 -57 0 l-28 -3 0 -123 c0
-161 1 -160 -124 -160 -129 0 -127 -3 -129 157 -1 140 2 134 -74 129z"/>
<path d="M4874 3931 c-2 -2 -4 -87 -4 -188 0 -167 2 -183 18 -184 9 -1 101 -1
203 -1 215 0 237 5 256 65 17 50 -2 111 -35 115 -28 4 -28 10 3 34 44 34 30
125 -22 147 -26 11 -409 22 -419 12z m345 -103 c5 -13 5 -27 0 -32 -9 -10
-189 -16 -221 -8 -11 3 -16 14 -16 33 l1 29 114 0 c109 0 114 -1 122 -22z m18
-134 c3 -9 2 -24 -4 -33 -8 -13 -31 -16 -129 -16 -107 0 -119 2 -122 18 -9 43
1 47 128 47 102 0 122 -2 127 -16z"/>
<path d="M5533 3927 c-10 -16 -4 -360 6 -366 6 -4 30 -6 53 -5 l43 1 0 137 c0
75 2 136 5 136 3 -1 52 -61 110 -135 68 -87 112 -135 125 -135 78 -6 158 -4
163 4 3 5 6 89 6 187 l1 177 -35 4 c-79 7 -77 12 -75 -130 1 -70 0 -130 -2
-135 -4 -6 -32 23 -66 68 -4 6 -33 42 -65 81 -32 39 -65 80 -74 92 -13 19 -26
22 -102 24 -48 2 -90 -1 -93 -5z"/>
<path d="M6100 3748 c0 -104 3 -188 8 -189 4 0 96 -1 204 -2 157 -2 199 1 203
11 9 24 5 59 -7 69 -7 5 -76 8 -153 7 l-141 -2 -1 33 -1 34 52 0 c28 -1 93 0
144 0 l92 1 -3 37 -2 37 -140 -1 -140 -1 -2 33 -3 33 128 0 c202 0 183 -4 180
42 -1 28 -7 40 -17 41 -9 0 -103 1 -208 2 l-193 2 0 -187z"/>
<path d="M7131 3930 c-12 -9 -7 -360 6 -368 14 -9 386 -7 400 1 10 6 8 65 -2
75 -2 3 -69 5 -147 5 -151 1 -162 4 -151 48 4 15 21 17 138 17 73 0 137 2 142
5 10 6 10 53 0 64 -4 3 -68 6 -142 6 l-135 0 0 23 c0 13 -1 27 -2 32 -2 4 61
8 139 8 78 1 148 4 155 6 13 5 17 63 5 74 -8 8 -396 11 -406 4z"/>
<path d="M7611 3930 c-4 -3 -8 -87 -8 -187 -1 -204 -9 -184 75 -185 37 -1 37
-1 38 38 0 22 3 45 7 50 3 6 49 9 108 8 87 -1 105 -4 116 -20 8 -11 12 -27 9
-37 -9 -34 27 -47 109 -38 6 1 9 18 8 38 -1 21 -2 46 -2 56 -1 9 -15 26 -32
36 -28 17 -29 20 -11 25 33 11 45 34 47 91 3 70 -20 111 -67 120 -41 8 -387
12 -397 5z m333 -96 c19 -7 22 -69 4 -81 -14 -8 -228 -12 -229 -3 0 3 -1 24
-2 48 l-2 42 107 0 c58 0 113 -3 122 -6z"/>
<path d="M8146 3932 c-15 -3 -16 -22 -15 -188 l1 -184 27 -1 c31 -1 473 -1
482 0 3 1 12 16 21 34 l15 32 119 -1 c66 -1 122 -2 125 -3 4 0 12 -14 19 -31
7 -16 15 -30 19 -31 34 -4 111 -1 113 5 1 5 -42 90 -97 190 l-98 181 -51 -2
c-28 0 -63 -2 -78 -2 -29 -1 -24 6 -165 -251 -68 -125 -85 -140 -78 -70 l4 40
-129 0 -130 0 -1 68 c0 37 0 99 0 138 l1 72 -43 3 c-24 2 -51 3 -61 1z m696
-160 l36 -68 -79 -1 -79 -2 36 70 c20 38 40 69 43 69 4 0 23 -31 43 -68z"/>
<path d="M9164 3932 l-41 -3 0 -177 c-1 -97 3 -181 7 -187 7 -8 57 -11 92 -6
4 1 9 63 10 138 l3 137 63 -80 c34 -43 75 -95 90 -114 67 -86 59 -81 155 -83
70 -2 88 1 91 13 3 8 4 93 4 188 l-1 172 -44 0 c-23 0 -46 1 -50 3 -5 1 -10
-61 -13 -138 l-5 -139 -109 137 c-60 75 -114 137 -120 138 -54 3 -98 4 -132 1z"/>
<path d="M6579 3920 c-1 -13 -1 -302 0 -337 l1 -28 209 1 c180 2 212 4 235 19
44 29 54 61 54 166 1 107 -14 151 -57 174 -34 17 -440 22 -442 5z m357 -88
c21 -14 31 -48 29 -101 -3 -80 -9 -82 -180 -82 -106 0 -95 -11 -93 96 l1 95
116 0 c64 0 121 -4 127 -8z"/>
<path d="M9703 3750 c-1 -124 2 -182 10 -187 6 -4 100 -6 208 -6 275 1 282 6
283 198 0 104 -20 150 -73 165 -20 5 -124 10 -232 10 l-195 0 -1 -180z m371
68 c22 -31 21 -120 -1 -147 -16 -19 -29 -21 -123 -22 -58 0 -112 0 -120 0 -12
1 -15 17 -13 88 1 49 2 91 2 96 1 4 55 7 120 7 113 0 121 -1 135 -22z"/>
</g>
</svg>
